Introduction aux méthodes quantitatives avec - Evaluation
…
Focus sur l’abstention

Question 9

Retrouver les 10 principales communes abstentionnistes parmi les communes où il y a eu plus de 2000 votes et n’appartenant pas aux départements des DROM ou des Français à l’étranger (pour cela, le filtre est directement donné: filter(!str_starts(code_commune, "(fr|98|97)")).

Analyser

Le tableau à obtenir sera le suivant. Le votre devra avoir au moins une colonne supplémentaire: les noms de commune.

# A tibble: 853 × 5
# Groups:   code_commune, libelle_commune [853]
   libelle_commune    code_commune abstention  votes taux_abstention
   <chr>              <chr>        <chr>       <dbl>           <dbl>
 1 Bastia             2B033        Abstentions  9191           0.418
 2 Clichy-sous-Bois   93014        Abstentions  4941           0.418
 3 Roubaix            59512        Abstentions 19526           0.410
 4 Porto-Vecchio      2A247        Abstentions  3983           0.405
 5 Vaulx-en-Velin     69256        Abstentions  9730           0.404
 6 Jeumont            59324        Abstentions  2607           0.396
 7 Forbach            57227        Abstentions  5025           0.392
 8 Stains             93072        Abstentions  6716           0.391
 9 Hautmont           59291        Abstentions  3700           0.389
10 Châlette-sur-Loing 45068        Abstentions  2865           0.389
# ℹ 843 more rows
…
